…
-----

## Question 1: What specialties do we have?

We can use `count()` from `dplyr` to figure out how many different
catagories do we have? Are these catagories related? overlapping? evenly
distributed?

``` r
mt_samples %>%
  count(medical_specialty, sort = TRUE)
```

    ## # A tibble: 40 x 2
    ##    medical_specialty                 n
    ##    <chr>                         <int>
    ##  1 Surgery                        1103
    ##  2 Consult - History and Phy.      516
    ##  3 Cardiovascular / Pulmonary      372
    ##  4 Orthopedic                      355
    ##  5 Radiology                       273
    ##  6 General Medicine                259
    ##  7 Gastroenterology                230
    ##  8 Neurology                       223
    ##  9 SOAP / Chart / Progress Notes   166
    ## 10 Obstetrics / Gynecology         160
    ## # ... with 30 more rows
…
``` r
trigram <- mt_samples%>%
  unnest_ngrams(ngram, transcription, n = 3)%>%
  separate(ngram, into = c('word1', 'word2', 'word3'), sep = ' ')%>%
  select(word1, word2, word3)

#count of words before 'patient'
trigram%>%
  filter(word2 == 'patient')%>%
  anti_join(stop_words, by = c('word1' = 'word'))%>%
  count(word1, sort = TRUE)
```

    ## # A tibble: 220 x 2
    ##    word1           n
    ##    <chr>       <int>
    ##  1 history       101
    ##  2 procedure      32
    ##  3 female         26
    ##  4 sample         23
    ##  5 male           22
    ##  6 illness        16
    ##  7 plan           16
    ##  8 indications    15
    ##  9 allergies      14
    ## 10 correct        11
    ## # ... with 210 more rows

``` r
#count of words after 'patient'
trigram%>%
  filter(word2 == 'patient')%>%
  anti_join(stop_words, by = c('word2' = 'word'))%>%
  count(word3, sort = TRUE)
```

    ## # A tibble: 588 x 2
    ##    word3         n
    ##    <chr>     <int>
    ##  1 was        6289
    ##  2 is         3330
    ##  3 has        1417
    ##  4 tolerated   992
    ##  5 had         886
    ##  6 will        616
    ##  7 denies      552
    ##  8 and         377
    ##  9 states      363
    ## 10 does        334
    ## # ... with 578 more rows

``` r
#Frequency table of words before and after 'Patient'
trigram%>%
  filter(word2 == 'patient')%>%
  anti_join(stop_words, by = c('word1' = 'word'))%>%
  anti_join(stop_words, by = c('word2' = 'word'))%>%
  count(word1, word3, sort = TRUE)
```

    ## # A tibble: 301 x 3
    ##    word1       word3      n
    ##    <chr>       <chr>  <int>
    ##  1 history     admits    37
    ##  2 history     is        25
    ##  3 procedure   was       20
    ##  4 history     denies    18
    ##  5 allergies   admits    14
    ##  6 illness     is        13
    ##  7 female      who       12
    ##  8 indications is        10
    ##  9 lbs         is         9
    ## 10 exam        is         8
    ## # ... with 291 more rows
…
``` r
#The 5 most used words for each medical speciality
mt_samples%>%
  unnest_tokens(token, transcription)%>%
  anti_join(stop_words, by = c('token' = 'word'))%>%
  filter(!(token %in% as.character(seq(0, 100))))%>%
  group_by(medical_specialty)%>%
  count(token)%>%
  top_n(5, n)
```

    ## # A tibble: 210 x 3
    ## # Groups:   medical_specialty [40]
    ##    medical_specialty    token         n
    ##    <chr>                <chr>     <int>
    ##  1 Allergy / Immunology allergies    21
    ##  2 Allergy / Immunology history      38
    ##  3 Allergy / Immunology nasal        13
    ##  4 Allergy / Immunology noted        23
    ##  5 Allergy / Immunology past         13
    ##  6 Allergy / Immunology patient      22
    ##  7 Autopsy              anterior     47
    ##  8 Autopsy              body         40
    ##  9 Autopsy              inch         59
    ## 10 Autopsy              left         83
    ## # ... with 200 more rows
…
